<?xml version="1.0" encoding="UTF-8"?>
<!-- Generator: Adobe Illustrator 19.2.0, SVG Export Plug-In . SVG Version: 6.00 Build 0)  -->
<svg version="1.1" id="Layer_1" xmlns="http://www.w3.org/2000/svg" xmlns:xlink="http://www.w3.org/1999/xlink" x="0px" y="0px" viewBox="0 0 280.5 33" style="enable-background:new 0 0 280.5 33;" xml:space="preserve">
<style type="text/css">
	.st0{fill:#303047;}
	.st1{fill:url(#SVGID_2_);}
	.st2{fill:url(#SVGID_3_);}
	.st3{fill:url(#SVGID_5_);}
	.st4{fill:url(#SVGID_6_);}
</style>
<g>
	<path class="st0" d="M47,32.4c-0.8,0-1.1-0.4-1-1.1l5.3-29.9c0.1-0.7,0.5-1.1,1.3-1.1h11.2c7.5,0,11.2,2.3,11.2,7   c0,1.9-0.5,3.6-1.5,5c-1,1.5-2.4,2.5-4.2,3.1c1.2,0.3,2.3,1,3,2.1c0.8,1,1.2,2.4,1.2,4c0,3.8-1.3,6.5-3.9,8.3   c-2.6,1.7-6.1,2.6-10.4,2.6H47z M59.4,27.2c5.2,0,7.8-1.9,7.8-5.7c0-1.2-0.5-2-1.4-2.6s-2.5-0.8-4.6-0.8h-6.5l-1.6,9h6.3V27.2z    M61.8,13.5c4.6,0,6.8-1.7,6.8-5.2c0-1.1-0.4-1.8-1.3-2.3S65,5.3,63.1,5.3h-6.2l-1.5,8.2H61.8z"/>
	<path class="st0" d="M82.1,31.3c-0.1,0.7-0.5,1-1.1,1h-4c-0.7,0-1-0.3-0.9-1l5.3-30.1c0.1-0.7,0.5-1,1.2-1h4c0.7,0,1,0.3,0.9,1   L82.1,31.3z"/>
	<path class="st0" d="M107.5,31.3c-0.1,0.7-0.5,1-1.2,1h-3.4c-0.6,0-1-0.3-1-0.9l0.3-2.5c-2.1,2.5-4.9,3.7-8.4,3.7   c-2.3,0-4.1-0.5-5.4-1.6s-1.9-2.5-1.9-4.3c0-1.4,0.2-2.6,0.7-3.6s1.2-1.9,2.1-2.5s1.9-1.1,2.9-1.5s2.2-0.7,3.6-0.8   c1.4-0.2,2.7-0.3,3.8-0.4c1.2-0.1,2.4-0.1,3.8-0.2h0.5l0.2-1c0.3-1.4,0.1-2.4-0.7-3.1c-0.7-0.7-2-1-3.9-1c-2.3,0-4.7,0.5-7.1,1.4   c-0.7,0.2-1.1,0-1.2-0.6l-0.4-2.5c-0.1-0.6,0.2-1,0.9-1.3c2.9-1.2,5.9-1.7,9-1.7c6.2,0,9.3,2.3,9.3,6.8c0,0.7-0.1,1.4-0.2,2.1   L107.5,31.3z M103.4,21.3l-2.7,0.1c-0.6,0-1.4,0.1-2.4,0.2s-1.8,0.3-2.4,0.5c-0.5,0.2-1.1,0.5-1.7,0.8s-1,0.7-1.3,1.3   c-0.3,0.5-0.4,1.1-0.4,1.8c0,0.8,0.3,1.4,0.9,1.9s1.5,0.7,2.6,0.7c2,0,3.6-0.5,4.8-1.5c1.2-1,2-2.3,2.3-3.9L103.4,21.3z"/>
	<path class="st0" d="M134,11.5c-0.1,0.5-0.3,1-0.8,1.5l-13.9,14.4h10.9c0.7,0,1,0.3,0.9,1l-0.5,2.9c-0.1,0.7-0.5,1-1.1,1h-17.3   c-0.8,0-1.1-0.3-1-1l0.4-2.2c0.1-0.5,0.4-1,0.7-1.3l14.1-14.5h-10.5c-0.7,0-1-0.4-0.9-1l0.5-2.9c0.1-0.7,0.5-1,1.2-1h16.8   c0.7,0,1,0.3,0.9,1L134,11.5z"/>
	<path class="st0" d="M153.1,27c0.7-0.3,1.2-0.1,1.3,0.6l0.4,2.1c0.1,0.5-0.2,0.9-0.9,1.3c-2.5,1.2-5.1,1.8-7.9,1.8   c-3.6,0-6.3-0.9-8.3-2.6s-3-4.2-3-7.3c0-0.9,0.1-1.9,0.3-2.9c0.7-3.9,2.2-7,4.5-9.1c2.4-2.1,5.3-3.2,8.9-3.2c3,0,5.4,0.8,7.1,2.4   s2.5,3.8,2.5,6.5c0,0.9-0.1,1.8-0.2,2.5l-0.4,2.2c-0.1,0.7-0.5,1.1-1.3,1.1h-15.5c0,0.2,0,0.4,0,0.7c0,1.6,0.6,2.9,1.7,3.8   s2.7,1.4,4.6,1.4C149,28.4,151.1,28,153.1,27z M141.1,18.7h11.3v-0.3c0.1-0.6,0.1-1.2,0.1-1.7c0-1.4-0.4-2.5-1.1-3.3   c-0.8-0.8-1.9-1.2-3.4-1.2C144.5,12.2,142.1,14.4,141.1,18.7z"/>
	<path class="st0" d="M175.4,24l-5.8-13.2L166,31.3c-0.2,0.8-0.6,1.1-1.3,1.1h-4c-0.8,0-1.1-0.4-1-1.1L165,1.4   c0.1-0.7,0.5-1.1,1.3-1.1h3.8c0.7,0,1.1,0.2,1.3,0.6l6.3,14.7l11.6-14.7c0.3-0.4,0.8-0.6,1.4-0.6h4c0.8,0,1.1,0.4,1,1.1l-5.3,29.9   c-0.2,0.8-0.6,1.1-1.3,1.1h-4c-0.8,0-1.1-0.4-0.9-1.1l3.6-20.5L177.4,24c-0.2,0.4-0.6,0.6-1.1,0.6C175.9,24.6,175.6,24.4,175.4,24z   "/>
	<path class="st0" d="M214.7,27c0.7-0.3,1.2-0.1,1.3,0.6l0.4,2.1c0.1,0.5-0.2,0.9-0.9,1.3c-2.5,1.2-5.1,1.8-7.9,1.8   c-3.6,0-6.3-0.9-8.3-2.6s-3-4.2-3-7.3c0-0.9,0.1-1.9,0.3-2.9c0.7-3.9,2.2-7,4.5-9.1c2.4-2.1,5.3-3.2,8.9-3.2c3,0,5.4,0.8,7.1,2.4   s2.5,3.8,2.5,6.5c0,0.9-0.1,1.8-0.2,2.5l-0.4,2.2c-0.1,0.7-0.5,1.1-1.3,1.1h-15.5c0,0.2,0,0.4,0,0.7c0,1.6,0.6,2.9,1.7,3.8   s2.7,1.4,4.6,1.4C210.6,28.4,212.7,28,214.7,27z M202.7,18.7H214v-0.3c0.1-0.6,0.1-1.2,0.1-1.7c0-1.4-0.4-2.5-1.1-3.3   c-0.8-0.8-1.9-1.2-3.4-1.2C206.1,12.2,203.8,14.4,202.7,18.7z"/>
	<path class="st0" d="M231.3,13.4l-2,11.1c-0.1,0.5-0.1,1-0.1,1.4c0,0.8,0.2,1.3,0.6,1.6c0.4,0.3,1.1,0.4,2.1,0.4   c0.3,0,0.7,0,1.1-0.1s0.7-0.1,0.9-0.1c0.3,0,0.5,0,0.7,0.2c0.1,0.2,0.2,0.4,0.1,0.7l-0.2,2.6c0,0.5-0.4,0.8-1.1,1   c-1.1,0.3-2.2,0.5-3.5,0.5c-2.3,0-4-0.4-5.1-1.3c-1.1-0.8-1.7-2.2-1.7-4.1c0-0.9,0.1-1.7,0.2-2.5l2-11.5h-2.4c-0.7,0-1-0.4-0.9-1   l0.5-2.6c0.1-0.7,0.5-1,1.2-1h2.6l1-5.6c0.1-0.6,0.5-1,1.2-1h3.7c0.7,0,1,0.3,0.9,1l-1,5.6h5c0.8,0,1.1,0.4,0.9,1l-0.4,2.6   c-0.1,0.7-0.5,1-1.2,1L231.3,13.4L231.3,13.4z"/>
	<path class="st0" d="M256.1,27c0.7-0.3,1.2-0.1,1.3,0.6l0.4,2.1c0.1,0.5-0.2,0.9-0.9,1.3c-2.5,1.2-5.1,1.8-7.9,1.8   c-3.6,0-6.3-0.9-8.3-2.6s-3-4.2-3-7.3c0-0.9,0.1-1.9,0.3-2.9c0.7-3.9,2.2-7,4.5-9.1c2.4-2.1,5.3-3.2,8.9-3.2c3,0,5.4,0.8,7.1,2.4   s2.5,3.8,2.5,6.5c0,0.9-0.1,1.8-0.2,2.5l-0.4,2.2c-0.1,0.7-0.5,1.1-1.3,1.1h-15.5c0,0.2,0,0.4,0,0.7c0,1.6,0.6,2.9,1.7,3.8   s2.7,1.4,4.6,1.4C252,28.4,254.1,28,256.1,27z M244.1,18.7h11.3v-0.3c0.1-0.6,0.1-1.2,0.1-1.7c0-1.4-0.4-2.5-1.1-3.3   c-0.8-0.8-1.9-1.2-3.4-1.2C247.5,12.2,245.1,14.4,244.1,18.7z"/>
	<path class="st0" d="M271.2,8.3c0.7,0,1,0.3,0.9,1l-0.4,3.6c0.8-1.2,1.9-2.3,3.3-3.3s3.1-1.5,4.8-1.5c0.6,0,0.9,0.3,0.8,0.9   l-0.7,4.2c-0.1,0.5-0.5,0.8-1,0.8c-0.1,0-0.3,0-0.6,0c-0.3,0-0.6,0-0.8,0c-1.7,0-3.2,0.7-4.5,2s-2.2,2.9-2.5,4.8l-1.9,10.5   c-0.1,0.7-0.5,1-1.1,1h-3.9c-0.8,0-1.1-0.3-1-1l3.9-22c0.1-0.7,0.5-1,1.2-1H271.2z"/>
	<g>
		<g>
			
				<linearGradient id="SVGID_2_" gradientUnits="userSpaceOnUse" x1="0" y1="710.8" x2="40.3" y2="710.8" gradientTransform="matrix(1 0 0 -1 0 723.5)">
				<stop offset="0" style="stop-color:#D42626"/>
				<stop offset="1" style="stop-color:#CC1D2E"/>
			</linearGradient>
			<path id="SVGID_1_" class="st1" d="M40.3,12.7L40.3,12.7c0-1.1-0.9-1.9-1.9-1.9H1.9c-1.1,0-1.9,0.9-1.9,1.9l0,0     c0,1.1,0.9,1.9,1.9,1.9h36.4C39.4,14.6,40.3,13.8,40.3,12.7z"/>
		</g>
	</g>
	<g>
		<g>
			
				<linearGradient id="SVGID_3_" gradientUnits="userSpaceOnUse" x1="18.2144" y1="717.6" x2="44.4723" y2="717.6" gradientTransform="matrix(1 0 0 -1 0 723.5)">
				<stop offset="0" style="stop-color:#D42626"/>
				<stop offset="1" style="stop-color:#CC1D2E"/>
			</linearGradient>
			<path id="SVGID_4_" class="st2" d="M44.5,5.9L44.5,5.9c0-1.1-0.9-1.9-1.9-1.9H20.2c-1.1,0-1.9,0.9-1.9,1.9l0,0     c0,1.1,0.9,1.9,1.9,1.9h22.4C43.6,7.8,44.5,7,44.5,5.9z"/>
		</g>
	</g>
	<g>
		<g>
			
				<linearGradient id="SVGID_5_" gradientUnits="userSpaceOnUse" x1="23.8535" y1="696.8" x2="36.8031" y2="696.8" gradientTransform="matrix(1 0 0 -1 0 723.5)">
				<stop offset="0" style="stop-color:#D42626"/>
				<stop offset="1" style="stop-color:#CC1D2E"/>
			</linearGradient>
			<path id="SVGID_7_" class="st3" d="M36.8,26.7L36.8,26.7c0-1.1-0.9-1.9-1.9-1.9h-9.1c-1.1,0-1.9,0.9-1.9,1.9l0,0     c0,1.1,0.9,1.9,1.9,1.9h9.1C35.9,28.6,36.8,27.8,36.8,26.7z"/>
		</g>
	</g>
	<g>
		<g>
			
				<linearGradient id="SVGID_6_" gradientUnits="userSpaceOnUse" x1="8.0428" y1="703.9" x2="34.0939" y2="703.9" gradientTransform="matrix(1 0 0 -1 0 723.5)">
				<stop offset="0" style="stop-color:#D42626"/>
				<stop offset="1" style="stop-color:#CC1D2E"/>
			</linearGradient>
			<path id="SVGID_10_" class="st4" d="M34.1,19.6L34.1,19.6c0-1.1-0.9-1.9-1.9-1.9H10c-1.1,0-1.9,0.9-1.9,1.9l0,0     c0,1.1,0.9,1.9,1.9,1.9h22.2C33.2,21.5,34.1,20.6,34.1,19.6z"/>
		</g>
	</g>
</g>
</svg>